Content-Type: text/x-zim-wiki
Wiki-Format: zim 0.6
Creation-Date: 2020-10-13T17:04:36+02:00

====== 1- 特效篇 ======
Created Dienstag 13 Oktober 2020

1- GUItext 讲解


2-GUItexture讲解


3-Trail Render特效


4-Line Render


5-AudioSource 组件
