Content-Type: text/x-zim-wiki
Wiki-Format: zim 0.6
Creation-Date: 2020-07-21T20:19:10+08:00

====== 12-Date 对象 ======
Created 星期二 21 七月 2020

1- 4中方式创建Date Object
		{{.\pasted_image.png}}

	ex：
		var d = new Date(2018, 11, 24, 10, 33, 30, 0); 
				 //**6 numbers** specify year, month, day, hour, minute, second:

2- 获得Date的方式
	{{.\pasted_image001.png}}
	
