Content-Type: text/x-zim-wiki
Wiki-Format: zim 0.6
Creation-Date: 2020-11-06T14:24:17+01:00

====== 11- self作为实例的传入对象 ======
Created 星期五 06 十一月 2020

m拥有了fc1的属性

{{./pasted_image.png}}  {{./pasted_image001.png}}
