Content-Type: text/x-zim-wiki
Wiki-Format: zim 0.4
Creation-Date: 2021-05-07T18:52:53+02:00

====== 0- pointer ======
Created 星期五 07 五月 2021

==== 1- kinds of syntax of declare a pointer(c++) ====


	1- 
		{{./pasted_image001.png}}


	2- 
	
		{{./pasted_image003.png}}
		{{./pasted_image004.png}}
		
		
	3- 
	
		{{./pasted_image005.png}}


==== 2- pointer and constant ====

	https://www.learncpp.com/cpp-tutorial/pointers-and-const/
	
	
	
	
	
	
	
	
	
	
	
	
	
	
	
	
	
	
	

