Content-Type: text/x-zim-wiki
Wiki-Format: zim 0.4
Creation-Date: 2021-03-17T14:35:19+01:00

====== 1- c++ 常用函数 ======
Created 星期三 17 三月 2021

**1- atoi()  ： 将字符串转换为int**
	http://c.biancheng.net/cpp/html/125.html
	
		int i;
		char buffer[256]；
		i = atoi (buffer);
