Content-Type: text/x-zim-wiki
Wiki-Format: zim 0.4
Creation-Date: 2019-12-21T16:51:33+08:00

====== 3-硬盘无法挂载 ======
Created 星期六 21 十二月 2019

https://bbs.deepin.org/forum.php?mod=viewthread&tid=127223
