Content-Type: text/x-zim-wiki
Wiki-Format: zim 0.6
Creation-Date: 2020-08-05T19:39:08+08:00

====== 15-Mongoose预定义修饰符-p38 ======
Created 星期三 05 八月 2020

==== 1- 预定义修饰符：lowercase, uppercase, trim ====

			trim:  去除左右空格
		{{.\pasted_image001.png}}


2- Mongoose，Getters与Setter自定义修饰符
		
		set：使用，则输入的时候为www.baidu.com是会自动变成http://www.baidu.com, 如果输入为http://www.baidu.com则保持原样。
		{{.\pasted_image002.png}}
















