Content-Type: text/x-zim-wiki
Wiki-Format: zim 0.6
Creation-Date: 2020-08-08T19:53:36+08:00

====== N-4-KOA-ejs引擎 ======
Created 星期六 08 八月 2020

其使用语法查看官网：
https://www.npmjs.com/package/ejs  


=== 1- 4补使用koa-ejs模板引擎： ===

		{{.\pasted_image.png}}

		{{.\pasted_image001.png}}

