Content-Type: text/x-zim-wiki
Wiki-Format: zim 0.6
Creation-Date: 2020-08-08T20:15:32+08:00

====== N-5-KOA-获取post表单 ======
Created 星期六 08 八月 2020

=== 1- Nodejs 原生获取post表单的方法 ===

	表单：
	{{.\pasted_image.png}}
	
	获取表单数据：
	{{.\pasted_image001.png}}
	{{.\pasted_image002.png}}


=== 2- 使用koa-bodyparser中间件进行获取 ===
		{{.\pasted_image003.png}}	











