Content-Type: text/x-zim-wiki
Wiki-Format: zim 0.4
Creation-Date: 2021-05-21T14:34:15+02:00

====== 13-1 CTest 模块 ======
Created 星期五 21 五月 2021

==== 0- 简单的列子 + 最简单的使用Catch2的方法 ====

允许在cmake build完成后使用 **# cmake test**进行unit测试。

https://github.com/xiaoruiDu/cmake-examples/tree/master/05-unit-testing/catch2-vendored

{{./pasted_image.png}}
{{./pasted_image001.png}}






