Content-Type: text/x-zim-wiki
Wiki-Format: zim 0.6
Creation-Date: 2020-09-29T20:57:04+08:00

====== 1- 基础知识 ======
Created 星期二 29 九月 2020

=== 1- 项目存储结构 ===
		{{.\pasted_image.png}}


=== 2- 基本操作 ===

	{{.\pasted_image001.png}}
	{{.\pasted_image002.png}}
	
游戏物体与组件的关系：

{{.\pasted_image003.png}}

