Content-Type: text/x-zim-wiki
Wiki-Format: zim 0.6
Creation-Date: 2020-10-01T17:21:04+08:00

====== 11- 刚体常用方法介绍 ======
Created 星期四 01 十月 2020


{{.\pasted_image.png}}
{{.\pasted_image001.png}}
{{.\pasted_image002.png}}
{{.\pasted_image003.png}}
{{.\pasted_image005.png}}
