Content-Type: text/x-zim-wiki
Wiki-Format: zim 0.6
Creation-Date: 2020-09-29T21:34:27+08:00

====== 3-使用预制体 ======
Created 星期二 29 九月 2020

{{.\pasted_image.png}}
													{{.\pasted_image008.png}}	
{{.\pasted_image001.png}}
{{.\pasted_image002.png}}
													{{.\pasted_image007.png}}
{{.\pasted_image003.png}}
													{{.\pasted_image009.png}}
{{.\pasted_image004.png}}
{{.\pasted_image005.png}}
{{.\pasted_image006.png}}
