Content-Type: text/x-zim-wiki
Wiki-Format: zim 0.6
Creation-Date: 2020-09-29T23:26:57+08:00

====== 7-键盘鼠标事件 ======
Created 星期二 29 九月 2020

{{.\pasted_image.png}}
{{.\pasted_image001.png}}

{{.\pasted_image002.png}}
