Content-Type: text/x-zim-wiki
Wiki-Format: zim 0.6
Creation-Date: 2020-09-29T00:08:00+08:00

====== 5- C封装 ======
Created 星期二 29 九月 2020

https://www.runoob.com/csharp/csharp-encapsulation.html

{{.\pasted_image.png}}
